<svg width="45" height="45" viewBox="0 0 45 45" fill="none" xmlns="http://www.w3.org/2000/svg">
<path d="M39.6387 15.9961L31.7285 10.0635V2.8125H39.6387V15.9961Z" fill="#CC5229"/>
<path d="M45 16.6984L22.5 0L0 16.6984L1.58361 18.8086L2.72461 17.9748V45H42.2754V17.9748L43.4164 18.8086L45 16.6984Z" fill="#EDF1F9"/>
<path d="M42.2754 45V17.9748L43.4164 18.8086L45 16.6984L22.5 0V45H42.2754Z" fill="#D8E0F0"/>
<path d="M9.31641 29.1797V23.9062H15.9082C17.3631 23.9062 18.5449 25.0894 18.5449 26.543C18.5449 27.9965 17.3631 29.1797 15.9082 29.1797H9.31641Z" fill="#FFBE40"/>
<path d="M10.6348 29.1797V18.6328H7.99805C7.99805 18.9079 7.99805 39.993 7.99805 39.7266H10.6348V37.0898H34.3652V39.7266H37.002C37.002 39.1605 37.002 28.871 37.002 29.1797H10.6348Z" fill="#CC5229"/>
<path d="M22.5 37.0898H34.3652V39.7266H37.002C37.002 39.1604 37.002 28.871 37.002 29.1797H22.5V37.0898Z" fill="#B32C11"/>
<path d="M29.0918 18.6328H15.9082V10.7227H29.0918V18.6328Z" fill="#73E6C0"/>
<path d="M22.5 10.7227H29.0918V18.6328H22.5V10.7227Z" fill="#4DBFAC"/>
</svg>
